…
``` r
names(ncdata)
```

    [1] "data"       "grid"       "date"       "dimensions" "attributes"

Each grid cell’s data is stored as a tidy data frame within the data
list:

``` r
ncdata$data[[1]]
```

    # A tibble: 7,671 × 7
       press_msl   kin temp_min temp_max  temp  kout precip
           <dbl> <dbl>    <dbl>    <dbl> <dbl> <dbl>  <dbl>
     1     1008.  174.     24.4     28.1  25.9  410.  9.12 
     2     1008.  162.     23.7     28.1  24.9  410. 15.6  
     3     1008.  201.     23.6     27.9  25.6  411.  4.84 
     4     1008.  177.     25.0     28.3  26.1  411.  5.20 
     5     1007.  218.     24.6     28.1  26.1  411.  1.54 
     6     1007.  199.     25.0     28.2  26.3  411.  8.35 
     7     1008.  195.     24.3     28.3  25.9  412. 14.4  
     8     1009.  158.     24.6     26.5  25.4  412. 11.4  
     9     1010.  143.     24.1     27.1  25.1  413.  9.15 
    10     1009.  220.     23.9     28.6  26.1  413.  0.810
    # ℹ 7,661 more rows
…
Check resampled dates by the weather generator:

``` r
stochastic_weather$resampled
```

    # A tibble: 7,300 × 3
       rlz_1      rlz_2      rlz_3     
       <date>     <date>     <date>    
     1 2001-01-01 2001-01-01 2001-01-01
     2 2005-12-28 2012-01-05 2005-01-12
     3 2005-01-02 2012-01-05 2005-01-13
     4 2006-01-06 2012-01-05 2015-01-02
     5 2015-01-06 2012-01-05 2015-01-03
     6 2006-01-07 2012-01-05 2015-01-04
     7 2006-01-08 2012-01-06 2015-01-05
     8 2015-01-09 2002-01-09 2015-01-06
     9 2015-01-10 2014-01-10 2011-01-10
    10 2015-01-11 2014-01-11 2011-01-13
    # ℹ 7,290 more rows
…
