Getting started with gridwegen
…
For this exercise, we will use the sample data provided with the package. The file provide long-term gridded metereological data for the Ntoum basin in Gabon. The readNetcdf() is a wrapper for several ncdf4 functions to extract metereological data from netcdf files with associated spatial coordinates, dates, dimensions (time, x, y) and variable attributes.

library(gridwegen)
ncfile <- system.file("extdata", "ntoum_era5_data.nc", package = "gridwegen")
ncdata <- readNetcdf(ncfile)

#Objects stored in the output data
names(ncdata)
#> [1] "data"       "grid"       "date"       "dimensions" "attributes"

Metereological data is stored as a list object and each list element is a “tidy data frame” with observations on rows and metereological variables on columns. Lets check this:

ncdata$data[[1]]
#> # A tibble: 14,244 x 7
#>     temp temp_min temp_max press_msl   kin  kout precip
#>    <dbl>    <dbl>    <dbl>     <dbl> <dbl> <dbl>  <dbl>
#>  1  24.8     22.8     27.3     1011.  146.  409.  10.7 
#>  2  24.8     22.8     27.3     1011.  146.  409.  10.7 
#>  3  25.2     23.6     28.4     1011.  160.  409.   0   
#>  4  25.0     23.4     27.9     1012.  163.  410.   0   
#>  5  25.0     23.0     28.0     1012.  163.  410.  16.5 
#>  6  25.2     22.9     28.7     1011.  161.  410.  15.0 
#>  7  24.5     22.2     28.0     1011.  190.  411.  17.3 
#>  8  24.5     22.4     28.1     1011.  135.  411.   6.54
#>  9  24.5     23.2     27.6     1011.  130.  412.  14.7 
#> 10  24.5     22.9     26.5     1012.  141.  412.  13.7 
#> # ... with 14,234 more rows

Information on the grids can be accessed via the ‘grid’ element and is also provided as a data frame with columns grid index followed by x and y dimension indices and x and y coordinate values:

ncdata$grid
#> # A tibble: 138 x 5
#>       id  xind  yind     x     y
#>    <int> <int> <dbl> <dbl> <dbl>
#>  1     1     8     1  9.68 0.725
#>  2     2     9     1  9.73 0.725
#>  3     3    10     1  9.78 0.725
#>  4     4    11     1  9.83 0.725
#>  5     5    12     1  9.88 0.725
#>  6     6    13     1  9.93 0.725
#>  7     7    14     1  9.98 0.725
#>  8     8    15     1 10.0  0.725
#>  9     9    16     1 10.1  0.725
#> 10    10     8     2  9.68 0.675
#> # ... with 128 more rows
…
