Getting started • weathergenr
…
The output object stores various information from the netcdf
file:

names(ncdata)
#> [1] "data"       "grid"       "date"       "dimensions" "attributes"

Metereological data is stored as a list object via data
element. Each list represents a different grid cell in “tidy” format,
i.e., with observations on rows and metereological variables on
columns:

# Display climate data for the first gridcell
ncdata$data[[1]]
#> # A tibble: 7,671 x 7
#>    press_msl   kin temp_min temp_max  temp  kout precip
#>        <dbl> <dbl>    <dbl>    <dbl> <dbl> <dbl>  <dbl>
#>  1     1008.  174.     24.4     28.1  25.9  410.  9.12 
#>  2     1008.  162.     23.7     28.1  24.9  410. 15.6  
#>  3     1008.  201.     23.6     27.9  25.6  411.  4.84 
#>  4     1008.  177.     25.0     28.3  26.1  411.  5.20 
#>  5     1007.  218.     24.6     28.1  26.1  411.  1.54 
#>  6     1007.  199.     25.0     28.2  26.3  411.  8.35 
#>  7     1008.  195.     24.3     28.3  25.9  412. 14.4  
#>  8     1009.  158.     24.6     26.5  25.4  412. 11.4  
#>  9     1010.  143.     24.1     27.1  25.1  413.  9.15 
#> 10     1009.  220.     23.9     28.6  26.1  413.  0.810
#> # ... with 7,661 more rows
…
The output is a list, where the first element is a data frame of
resampled dates for each new stochastic realization and a date vector
for the new (generated) weather data.

# Resampled dates
stochastic_weather$resampled
#> # A tibble: 7,300 x 3
#>    rlz_1      rlz_2      rlz_3     
#>    <date>     <date>     <date>    
#>  1 2001-01-01 2001-01-01 2001-01-01
#>  2 2000-01-01 2006-01-02 2006-01-01
#>  3 2012-01-02 2006-01-01 2006-01-02
#>  4 2012-01-05 2014-01-06 2006-01-01
#>  5 2000-01-06 2014-01-06 2006-01-02
#>  6 2002-01-07 2018-01-04 2016-01-09
#>  7 2019-01-06 2008-01-04 2001-01-10
#>  8 2002-01-06 2016-01-09 2016-01-09
#>  9 2003-01-06 2013-01-08 2013-01-11
#> 10 2002-01-13 2016-01-10 2001-01-07
#> # ... with 7,290 more rows
…
