…
##### 1. Time Series Data

The `data` element contains a list of tibbles, one for each grid cell.
Each tibble represents a daily time series with columns for each
meteorological variable:

Code

``` r

# Examine the first grid cell's time series
ncdata$data[[1]]
```

    # A tibble: 7,671 × 7
       press_msl   kin temp_min temp_max  temp  kout precip
           <dbl> <dbl>    <dbl>    <dbl> <dbl> <dbl>  <dbl>
     1     1008.  174.     24.4     28.1  25.9  410.  9.12
     2     1008.  162.     23.7     28.1  24.9  410. 15.6
     3     1008.  201.     23.6     27.9  25.6  411.  4.84
     4     1008.  177.     25.0     28.3  26.1  411.  5.20
     5     1007.  218.     24.6     28.1  26.1  411.  1.54
     6     1007.  199.     25.0     28.2  26.3  411.  8.35
     7     1008.  195.     24.3     28.3  25.9  412. 14.4
     8     1009.  158.     24.6     26.5  25.4  412. 11.4
     9     1010.  143.     24.1     27.1  25.1  413.  9.15
    10     1009.  220.     23.9     28.6  26.1  413.  0.810
    # ℹ 7,661 more rows
…
- Whether the generator is drawing from wet or dry historical periods
- The diversity of historical conditions being sampled
- Temporal clustering patterns in the resampling scheme

Code

``` r

# Display resampled dates for all realizations
stochastic_weather$resampled
```

    # A tibble: 7,300 × 3
       rlz_1      rlz_2      rlz_3
       <date[1d]> <date[1d]> <date[1d]>
     1 2015-01-01 2005-01-01 2013-01-01
     2 2011-01-03 2005-01-02 2013-01-05
     3 2010-01-04 2010-01-03 2013-01-06
     4 2010-01-04 2010-01-04 2013-01-02
     5 2010-01-05 2015-01-03 2004-01-05
     6 2010-01-06 2005-01-08 2004-01-07
     7 2010-01-10 2005-01-09 2004-01-08
     8 2010-01-11 2010-01-09 2004-01-25
     9 2010-01-12 2010-01-10 2013-01-13
    10 2010-01-13 2015-01-11 2004-01-08
    # ℹ 7,290 more rows
…
