getting_started • weathergenr
…
Interpreting Resampled Dates

The resampled dates show which historical days were selected as analogues. This information reveals:

Whether the generator is drawing from wet or dry historical periods

The diversity of historical conditions being sampled

Temporal clustering patterns in the resampling scheme

# Display resampled dates for all realizations
stochastic_weather$resampled

# A tibble: 7,300 × 3
   rlz_1      rlz_2      rlz_3
   <date>     <date>     <date>
 1 2016-01-01 2017-01-01 2015-01-01
 2 2015-01-01 2017-01-04 2005-01-28
 3 2016-01-20 2002-01-02 2010-01-29
 4 2015-01-02 2002-01-07 2010-01-16
 5 2015-01-03 2002-01-08 2010-01-04
 6 2015-01-07 2002-01-09 2010-01-05
 7 2015-01-09 2002-01-10 2010-01-06
 8 2015-01-10 2002-01-07 2010-01-11
 9 2015-01-10 2014-01-08 2010-01-12
10 2015-01-10 2014-01-08 2010-01-10
# ℹ 7,290 more rows
…
